…
# Assign drive IDs
data <- data %>%
  mutate(drive_id = cumsum(new_drive))

# View the resulting data
print(data)
```

```
## Simple feature collection with 21458 features and 9 fields
## Geometry type: POINT
## Dimension:     XY
## Bounding box:  xmin: 8.356791 ymin: 49.00144 xmax: 8.425648 ymax: 49.02645
## Geodetic CRS:  WGS 84
## # A tibble: 21,458 × 10
##    latitude longitude elevation timestamp                      geometry date       time     time_diff
##  *    <dbl>     <dbl>     <dbl> <dttm>                      <POINT [°]> <date>     <chr>        <dbl>
##  1     49.0      8.37      118. 2024-04-05 20:59:08 (8.369448 49.00543) 2024-04-05 20:59:08        NA
##  2     49.0      8.37      118. 2024-04-05 20:59:34 (8.369605 49.00534) 2024-04-05 20:59:34        26
##  3     49.0      8.37      118. 2024-04-05 20:59:35 (8.369605 49.00533) 2024-04-05 20:59:35         1
##  4     49.0      8.37      118. 2024-04-05 20:59:36 (8.369606 49.00532) 2024-04-05 20:59:36         1
##  5     49.0      8.37      118. 2024-04-05 20:59:37  (8.369607 49.0053) 2024-04-05 20:59:37         1
##  6     49.0      8.37      118. 2024-04-05 20:59:38  (8.369607 49.0053) 2024-04-05 20:59:38         1
##  7     49.0      8.37      118. 2024-04-05 20:59:39  (8.369602 49.0053) 2024-04-05 20:59:39         1
##  8     49.0      8.37      118. 2024-04-05 20:59:40 (8.369611 49.00529) 2024-04-05 20:59:40         1
##  9     49.0      8.37      118. 2024-04-05 20:59:41 (8.369583 49.00525) 2024-04-05 20:59:41         1
## 10     49.0      8.37      118. 2024-04-05 20:59:42 (8.369589 49.00527) 2024-04-05 20:59:42         1
## # ℹ 21,448 more rows
## # ℹ 2 more variables: new_drive <dbl>, drive_id <dbl>
```
…
